{
    "popup_item_options": {
        "message": "Баптаулар…",
        "description": "The label of the menu item for opening the extension's preference page"
    },
    "useragent_category_other": {
        "message": "Басқа",
        "description": "Default category label for unclassified client software"
    },
    "icon_title_disabled": {
        "message": "Өшірілген",
        "description": "Text displayed in the browser action icon tooltip when no request processing is being done because of the global setting"
    },
    "popup_item_default": {
        "message": "Әдепкі",
        "description": "The label of the menu item that disables the User-Agent overrider and lets the browser send its default User-Agent string"
    },
    "options_entries_heading_category": {
        "message": "Санат",
        "description": "Options page table editor heading for the column with general category of the given User-Agent-String"
    },
    "options_entries_heading_enabled": {
        "message": "Қосылған",
        "description": "Options page table editor heading for the column allowing to enabled or disable items"
    },
    "popup_item_random_categories": {
        "message": "Санаттар:",
        "description": "The section header of the categories selection of random selection mode"
    },
    "options_entries_switch_text": {
        "message": "Мәтіндік режимге ауысу",
        "description": "Options page link for switching from table to text mode"
    }
}
